-- Merging decision tree log ---
manifest
ADDED from C:\Users\New\AndroidStudioProjects\movie_api\android\app\src\main\AndroidManifest.xml:1:1-41:12
INJECTED from C:\Users\New\AndroidStudioProjects\movie_api\android\app\src\main\AndroidManifest.xml:1:1-41:12
INJECTED from C:\Users\New\AndroidStudioProjects\movie_api\android\app\src\main\AndroidManifest.xml:1:1-41:12
INJECTED from C:\Users\New\AndroidStudioProjects\movie_api\android\app\src\main\AndroidManifest.xml:1:1-41:12
MERGED from C:\Users\New\AndroidStudioProjects\movie_api\android\app\src\main\AndroidManifest.xml:1:1-41:12
MERGED from [androidx.fragment:fragment:1.1.0] C:\Users\New\.gradle\caches\transforms-2\files-2.1\ba80674a1a5fdce2b1b29eea5683af77\fragment-1.1.0\AndroidManifest.xml:17:1-24:12
MERGED from [androidx.activity:activity:1.0.0] C:\Users\New\.gradle\caches\transforms-2\files-2.1\68865d38a53fb5c240061f062e474515\jetified-activity-1.0.0\AndroidManifest.xml:17:1-24:12
MERGED from [androidx.viewpager:viewpager:1.0.0] C:\Users\New\.gradle\caches\transforms-2\files-2.1\2f70304b103eacfab05dbe55739e869f\viewpager-1.0.0\AndroidManifest.xml:17:1-22:12
MERGED from [androidx.loader:loader:1.0.0] C:\Users\New\.gradle\caches\transforms-2\files-2.1\49dee3543bc65746b6bba9f83aa0b18a\loader-1.0.0\AndroidManifest.xml:17:1-22:12
MERGED from [androidx.customview:customview:1.0.0] C:\Users\New\.gradle\caches\transforms-2\files-2.1\86cf751735e9e9dd0416cce35c4a71a1\customview-1.0.0\AndroidManifest.xml:17:1-22:12
MERGED from [androidx.core:core:1.1.0] C:\Users\New\.gradle\caches\transforms-2\files-2.1\d67cd79abd1ca209502f51c69d23182b\core-1.1.0\AndroidManifest.xml:17:1-26:12
MERGED from [androidx.lifecycle:lifecycle-runtime:2.2.0] C:\Users\New\.gradle\caches\transforms-2\files-2.1\b37a656be7da34e79d326523a32fbcaa\lifecycle-runtime-2.2.0\AndroidManifest.xml:17:1-24:12
MERGED from [androidx.savedstate:savedstate:1.0.0] C:\Users\New\.gradle\caches\transforms-2\files-2.1\29e9e6ac99026fff5bb21139b2ad74ac\jetified-savedstate-1.0.0\AndroidManifest.xml:17:1-24:12
MERGED from [androidx.lifecycle:lifecycle-livedata:2.0.0] C:\Users\New\.gradle\caches\transforms-2\files-2.1\15faa7fdc535e832982b4615d300cb77\lifecycle-livedata-2.0.0\AndroidManifest.xml:17:1-22:12
MERGED from [androidx.lifecycle:lifecycle-livedata-core:2.0.0] C:\Users\New\.gradle\caches\transforms-2\files-2.1\033c1099bb4cd11be9138377da501d59\lifecycle-livedata-core-2.0.0\AndroidManifest.xml:17:1-22:12
MERGED from [androidx.arch.core:core-runtime:2.0.0] C:\Users\New\.gradle\caches\transforms-2\files-2.1\943631e3c5a6dfa67bece88add1d3fe3\core-runtime-2.0.0\AndroidManifest.xml:17:1-22:12
MERGED from [androidx.versionedparcelable:versionedparcelable:1.1.0] C:\Users\New\.gradle\caches\transforms-2\files-2.1\af9af86a2035b10a0514f89f66cf8a9a\versionedparcelable-1.1.0\AndroidManifest.xml:17:1-27:12
MERGED from [androidx.lifecycle:lifecycle-viewmodel:2.1.0] C:\Users\New\.gradle\caches\transforms-2\files-2.1\2b6a4e71d38d3b36d0c903aac26cfd25\lifecycle-viewmodel-2.1.0\AndroidManifest.xml:17:1-22:12
INJECTED from C:\Users\New\AndroidStudioProjects\movie_api\android\app\src\debug\AndroidManifest.xml:1:1-7:12
INJECTED from C:\Users\New\AndroidStudioProjects\movie_api\android\app\src\debug\AndroidManifest.xml:1:1-7:12
INJECTED from C:\Users\New\AndroidStudioProjects\movie_api\android\app\src\debug\AndroidManifest.xml:1:1-7:12
	package
		ADDED from C:\Users\New\AndroidStudioProjects\movie_api\android\app\src\main\AndroidManifest.xml:2:5-36
		INJECTED from C:\Users\New\AndroidStudioProjects\movie_api\android\app\src\main\AndroidManifest.xml
		INJECTED from C:\Users\New\AndroidStudioProjects\movie_api\android\app\src\debug\AndroidManifest.xml
	android:versionName
		INJECTED from C:\Users\New\AndroidStudioProjects\movie_api\android\app\src\main\AndroidManifest.xml
		ADDED from C:\Users\New\AndroidStudioProjects\movie_api\android\app\src\main\AndroidManifest.xml:1:1-41:12
		INJECTED from C:\Users\New\AndroidStudioProjects\movie_api\android\app\src\debug\AndroidManifest.xml
	android:versionCode
		INJECTED from C:\Users\New\AndroidStudioProjects\movie_api\android\app\src\main\AndroidManifest.xml
		ADDED from C:\Users\New\AndroidStudioProjects\movie_api\android\app\src\main\AndroidManifest.xml:1:1-41:12
		INJECTED from C:\Users\New\AndroidStudioProjects\movie_api\android\app\src\debug\AndroidManifest.xml
	xmlns:android
		ADDED from C:\Users\New\AndroidStudioProjects\movie_api\android\app\src\main\AndroidManifest.xml:1:11-69
application
ADDED from C:\Users\New\AndroidStudioProjects\movie_api\android\app\src\main\AndroidManifest.xml:3:4-40:19
MERGED from [androidx.core:core:1.1.0] C:\Users\New\.gradle\caches\transforms-2\files-2.1\d67cd79abd1ca209502f51c69d23182b\core-1.1.0\AndroidManifest.xml:24:5-89
MERGED from [androidx.core:core:1.1.0] C:\Users\New\.gradle\caches\transforms-2\files-2.1\d67cd79abd1ca209502f51c69d23182b\core-1.1.0\AndroidManifest.xml:24:5-89
MERGED from [androidx.versionedparcelable:versionedparcelable:1.1.0] C:\Users\New\.gradle\caches\transforms-2\files-2.1\af9af86a2035b10a0514f89f66cf8a9a\versionedparcelable-1.1.0\AndroidManifest.xml:24:5-25:19
MERGED from [androidx.versionedparcelable:versionedparcelable:1.1.0] C:\Users\New\.gradle\caches\transforms-2\files-2.1\af9af86a2035b10a0514f89f66cf8a9a\versionedparcelable-1.1.0\AndroidManifest.xml:24:5-25:19
	android:appComponentFactory
		ADDED from [androidx.core:core:1.1.0] C:\Users\New\.gradle\caches\transforms-2\files-2.1\d67cd79abd1ca209502f51c69d23182b\core-1.1.0\AndroidManifest.xml:24:18-86
	android:label
		ADDED from C:\Users\New\AndroidStudioProjects\movie_api\android\app\src\main\AndroidManifest.xml:4:9-34
	android:icon
		ADDED from C:\Users\New\AndroidStudioProjects\movie_api\android\app\src\main\AndroidManifest.xml:5:9-43
activity#com.example.movie_api.MainActivity
ADDED from C:\Users\New\AndroidStudioProjects\movie_api\android\app\src\main\AndroidManifest.xml:6:9-34:20
	android:launchMode
		ADDED from C:\Users\New\AndroidStudioProjects\movie_api\android\app\src\main\AndroidManifest.xml:8:13-43
	android:hardwareAccelerated
		ADDED from C:\Users\New\AndroidStudioProjects\movie_api\android\app\src\main\AndroidManifest.xml:11:13-47
	android:windowSoftInputMode
		ADDED from C:\Users\New\AndroidStudioProjects\movie_api\android\app\src\main\AndroidManifest.xml:12:13-55
	android:configChanges
		ADDED from C:\Users\New\AndroidStudioProjects\movie_api\android\app\src\main\AndroidManifest.xml:10:13-163
	android:theme
		ADDED from C:\Users\New\AndroidStudioProjects\movie_api\android\app\src\main\AndroidManifest.xml:9:13-47
	android:name
		ADDED from C:\Users\New\AndroidStudioProjects\movie_api\android\app\src\main\AndroidManifest.xml:7:13-41
meta-data#io.flutter.embedding.android.NormalTheme
ADDED from C:\Users\New\AndroidStudioProjects\movie_api\android\app\src\main\AndroidManifest.xml:17:13-20:17
	android:resource
		ADDED from C:\Users\New\AndroidStudioProjects\movie_api\android\app\src\main\AndroidManifest.xml:19:15-52
	android:name
		ADDED from C:\Users\New\AndroidStudioProjects\movie_api\android\app\src\main\AndroidManifest.xml:18:15-70
meta-data#io.flutter.embedding.android.SplashScreenDrawable
ADDED from C:\Users\New\AndroidStudioProjects\movie_api\android\app\src\main\AndroidManifest.xml:26:13-29:17
	android:resource
		ADDED from C:\Users\New\AndroidStudioProjects\movie_api\android\app\src\main\AndroidManifest.xml:28:15-61
	android:name
		ADDED from C:\Users\New\AndroidStudioProjects\movie_api\android\app\src\main\AndroidManifest.xml:27:15-79
intent-filter#action:name:android.intent.action.MAIN+category:name:android.intent.category.LAUNCHER
ADDED from C:\Users\New\AndroidStudioProjects\movie_api\android\app\src\main\AndroidManifest.xml:30:13-33:29
action#android.intent.action.MAIN
ADDED from C:\Users\New\AndroidStudioProjects\movie_api\android\app\src\main\AndroidManifest.xml:31:17-68
	android:name
		ADDED from C:\Users\New\AndroidStudioProjects\movie_api\android\app\src\main\AndroidManifest.xml:31:25-66
category#android.intent.category.LAUNCHER
ADDED from C:\Users\New\AndroidStudioProjects\movie_api\android\app\src\main\AndroidManifest.xml:32:17-76
	android:name
		ADDED from C:\Users\New\AndroidStudioProjects\movie_api\android\app\src\main\AndroidManifest.xml:32:27-74
meta-data#flutterEmbedding
ADDED from C:\Users\New\AndroidStudioProjects\movie_api\android\app\src\main\AndroidManifest.xml:37:9-39:33
	android:value
		ADDED from C:\Users\New\AndroidStudioProjects\movie_api\android\app\src\main\AndroidManifest.xml:39:13-30
	android:name
		ADDED from C:\Users\New\AndroidStudioProjects\movie_api\android\app\src\main\AndroidManifest.xml:38:13-44
uses-sdk
INJECTED from C:\Users\New\AndroidStudioProjects\movie_api\android\app\src\main\AndroidManifest.xml reason: use-sdk injection requested
INJECTED from C:\Users\New\AndroidStudioProjects\movie_api\android\app\src\main\AndroidManifest.xml
INJECTED from C:\Users\New\AndroidStudioProjects\movie_api\android\app\src\main\AndroidManifest.xml
MERGED from [androidx.fragment:fragment:1.1.0] C:\Users\New\.gradle\caches\transforms-2\files-2.1\ba80674a1a5fdce2b1b29eea5683af77\fragment-1.1.0\AndroidManifest.xml:20:5-22:41
MERGED from [androidx.fragment:fragment:1.1.0] C:\Users\New\.gradle\caches\transforms-2\files-2.1\ba80674a1a5fdce2b1b29eea5683af77\fragment-1.1.0\AndroidManifest.xml:20:5-22:41
MERGED from [androidx.activity:activity:1.0.0] C:\Users\New\.gradle\caches\transforms-2\files-2.1\68865d38a53fb5c240061f062e474515\jetified-activity-1.0.0\AndroidManifest.xml:20:5-22:41
MERGED from [androidx.activity:activity:1.0.0] C:\Users\New\.gradle\caches\transforms-2\files-2.1\68865d38a53fb5c240061f062e474515\jetified-activity-1.0.0\AndroidManifest.xml:20:5-22:41
MERGED from [androidx.viewpager:viewpager:1.0.0] C:\Users\New\.gradle\caches\transforms-2\files-2.1\2f70304b103eacfab05dbe55739e869f\viewpager-1.0.0\AndroidManifest.xml:20:5-44
MERGED from [androidx.viewpager:viewpager:1.0.0] C:\Users\New\.gradle\caches\transforms-2\files-2.1\2f70304b103eacfab05dbe55739e869f\viewpager-1.0.0\AndroidManifest.xml:20:5-44
MERGED from [androidx.loader:loader:1.0.0] C:\Users\New\.gradle\caches\transforms-2\files-2.1\49dee3543bc65746b6bba9f83aa0b18a\loader-1.0.0\AndroidManifest.xml:20:5-44
MERGED from [androidx.loader:loader:1.0.0] C:\Users\New\.gradle\caches\transforms-2\files-2.1\49dee3543bc65746b6bba9f83aa0b18a\loader-1.0.0\AndroidManifest.xml:20:5-44
MERGED from [androidx.customview:customview:1.0.0] C:\Users\New\.gradle\caches\transforms-2\files-2.1\86cf751735e9e9dd0416cce35c4a71a1\customview-1.0.0\AndroidManifest.xml:20:5-44
MERGED from [androidx.customview:customview:1.0.0] C:\Users\New\.gradle\caches\transforms-2\files-2.1\86cf751735e9e9dd0416cce35c4a71a1\customview-1.0.0\AndroidManifest.xml:20:5-44
MERGED from [androidx.core:core:1.1.0] C:\Users\New\.gradle\caches\transforms-2\files-2.1\d67cd79abd1ca209502f51c69d23182b\core-1.1.0\AndroidManifest.xml:20:5-22:41
MERGED from [androidx.core:core:1.1.0] C:\Users\New\.gradle\caches\transforms-2\files-2.1\d67cd79abd1ca209502f51c69d23182b\core-1.1.0\AndroidManifest.xml:20:5-22:41
MERGED from [androidx.lifecycle:lifecycle-runtime:2.2.0] C:\Users\New\.gradle\caches\transforms-2\files-2.1\b37a656be7da34e79d326523a32fbcaa\lifecycle-runtime-2.2.0\AndroidManifest.xml:20:5-22:41
MERGED from [androidx.lifecycle:lifecycle-runtime:2.2.0] C:\Users\New\.gradle\caches\transforms-2\files-2.1\b37a656be7da34e79d326523a32fbcaa\lifecycle-runtime-2.2.0\AndroidManifest.xml:20:5-22:41
MERGED from [androidx.savedstate:savedstate:1.0.0] C:\Users\New\.gradle\caches\transforms-2\files-2.1\29e9e6ac99026fff5bb21139b2ad74ac\jetified-savedstate-1.0.0\AndroidManifest.xml:20:5-22:41
MERGED from [androidx.savedstate:savedstate:1.0.0] C:\Users\New\.gradle\caches\transforms-2\files-2.1\29e9e6ac99026fff5bb21139b2ad74ac\jetified-savedstate-1.0.0\AndroidManifest.xml:20:5-22:41
MERGED from [androidx.lifecycle:lifecycle-livedata:2.0.0] C:\Users\New\.gradle\caches\transforms-2\files-2.1\15faa7fdc535e832982b4615d300cb77\lifecycle-livedata-2.0.0\AndroidManifest.xml:20:5-44
MERGED from [androidx.lifecycle:lifecycle-livedata:2.0.0] C:\Users\New\.gradle\caches\transforms-2\files-2.1\15faa7fdc535e832982b4615d300cb77\lifecycle-livedata-2.0.0\AndroidManifest.xml:20:5-44
MERGED from [androidx.lifecycle:lifecycle-livedata-core:2.0.0] C:\Users\New\.gradle\caches\transforms-2\files-2.1\033c1099bb4cd11be9138377da501d59\lifecycle-livedata-core-2.0.0\AndroidManifest.xml:20:5-44
MERGED from [androidx.lifecycle:lifecycle-livedata-core:2.0.0] C:\Users\New\.gradle\caches\transforms-2\files-2.1\033c1099bb4cd11be9138377da501d59\lifecycle-livedata-core-2.0.0\AndroidManifest.xml:20:5-44
MERGED from [androidx.arch.core:core-runtime:2.0.0] C:\Users\New\.gradle\caches\transforms-2\files-2.1\943631e3c5a6dfa67bece88add1d3fe3\core-runtime-2.0.0\AndroidManifest.xml:20:5-44
MERGED from [androidx.arch.core:core-runtime:2.0.0] C:\Users\New\.gradle\caches\transforms-2\files-2.1\943631e3c5a6dfa67bece88add1d3fe3\core-runtime-2.0.0\AndroidManifest.xml:20:5-44
MERGED from [androidx.versionedparcelable:versionedparcelable:1.1.0] C:\Users\New\.gradle\caches\transforms-2\files-2.1\af9af86a2035b10a0514f89f66cf8a9a\versionedparcelable-1.1.0\AndroidManifest.xml:20:5-22:41
MERGED from [androidx.versionedparcelable:versionedparcelable:1.1.0] C:\Users\New\.gradle\caches\transforms-2\files-2.1\af9af86a2035b10a0514f89f66cf8a9a\versionedparcelable-1.1.0\AndroidManifest.xml:20:5-22:41
MERGED from [androidx.lifecycle:lifecycle-viewmodel:2.1.0] C:\Users\New\.gradle\caches\transforms-2\files-2.1\2b6a4e71d38d3b36d0c903aac26cfd25\lifecycle-viewmodel-2.1.0\AndroidManifest.xml:20:5-44
MERGED from [androidx.lifecycle:lifecycle-viewmodel:2.1.0] C:\Users\New\.gradle\caches\transforms-2\files-2.1\2b6a4e71d38d3b36d0c903aac26cfd25\lifecycle-viewmodel-2.1.0\AndroidManifest.xml:20:5-44
INJECTED from C:\Users\New\AndroidStudioProjects\movie_api\android\app\src\debug\AndroidManifest.xml
INJECTED from C:\Users\New\AndroidStudioProjects\movie_api\android\app\src\debug\AndroidManifest.xml
	android:targetSdkVersion
		INJECTED from C:\Users\New\AndroidStudioProjects\movie_api\android\app\src\main\AndroidManifest.xml
		INJECTED from C:\Users\New\AndroidStudioProjects\movie_api\android\app\src\debug\AndroidManifest.xml
	android:minSdkVersion
		INJECTED from C:\Users\New\AndroidStudioProjects\movie_api\android\app\src\main\AndroidManifest.xml
		INJECTED from C:\Users\New\AndroidStudioProjects\movie_api\android\app\src\debug\AndroidManifest.xml
uses-permission#android.permission.INTERNET
ADDED from C:\Users\New\AndroidStudioProjects\movie_api\android\app\src\debug\AndroidManifest.xml:6:5-66
	android:name
		ADDED from C:\Users\New\AndroidStudioProjects\movie_api\android\app\src\debug\AndroidManifest.xml:6:22-64
